^C:\USERS\MAKSY\SOURCE\REPOS\LIBS\STATICLIB\MUL.CPP
/c /ZI /JMC /nologo /W3 /WX- /diagnostics:column /sdl /Od /D _DEBUG /D _CONSOLE /D _UNICODE /D UNICODE /Gm- /EHsc /RTC1 /MDd /GS /fp:precise /Zc:wchar_t /Zc:forScope /Zc:inline /permissive- /Fo"X64\DEBUG\\" /Fd"C:\USERS\MAKSY\SOURCE\REPOS\LIBS\X64\DEBUG\STATICLIB.PDB" /external:W3 /Gd /TP /FC C:\USERS\MAKSY\SOURCE\REPOS\LIBS\STATICLIB\MUL.CPP
^C:\USERS\MAKSY\SOURCE\REPOS\LIBS\STATICLIB\SUM.CPP
/c /ZI /JMC /nologo /W3 /WX- /diagnostics:column /sdl /Od /D _DEBUG /D _CONSOLE /D _UNICODE /D UNICODE /Gm- /EHsc /RTC1 /MDd /GS /fp:precise /Zc:wchar_t /Zc:forScope /Zc:inline /permissive- /Fo"X64\DEBUG\\" /Fd"C:\USERS\MAKSY\SOURCE\REPOS\LIBS\X64\DEBUG\STATICLIB.PDB" /external:W3 /Gd /TP /FC C:\USERS\MAKSY\SOURCE\REPOS\LIBS\STATICLIB\SUM.CPP
